
     Program PWSCF v.6.4.1 starts on 30May2019 at 12: 4: 7 

     This program is part of the open-source Quantum ESPRESSO suite
     for quantum simulation of materials; please cite
         "P. Giannozzi et al., J. Phys.:Condens. Matter 21 395502 (2009);
         "P. Giannozzi et al., J. Phys.:Condens. Matter 29 465901 (2017);
          URL http://www.quantum-espresso.org", 
     in publications or presentations arising from this work. More details at
     http://www.quantum-espresso.org/quote

     Parallel version (MPI), running on    40 processors

     MPI processes distributed on     1 nodes
     R & G space division:  proc/nbgrp/npool/nimage =      40
     Waiting for input...
     Reading input from standard input

     Current dimensions of program PWSCF are:
     Max number of different atomic species (ntypx) = 10
     Max number of k-points (npk) =  40000
     Max angular momentum in pseudopotentials (lmaxx) =  3
     Message from routine read_upf::
     Pseudo file C.tm.pbe.UPF has been fixed on the fly.
To avoid this message in the future, permanently fix 
 your pseudo files following these instructions: 
https://gitlab.com/QEF/q-e/blob/master/upftools/how_to_fix_upf.md
     Message from routine read_upf::
     Pseudo file H.tm.pbe.UPF has been fixed on the fly.
To avoid this message in the future, permanently fix 
 your pseudo files following these instructions: 
https://gitlab.com/QEF/q-e/blob/master/upftools/how_to_fix_upf.md

     gamma-point specific algorithms are used

     Subspace diagonalization in iterative solution of the eigenvalue problem:
     one sub-group per band group will be used
     scalapack distributed-memory algorithm (size of sub-group:  5*  5 procs)

 
     Parallelization info
     --------------------
     sticks:   dense  smooth     PW     G-vecs:    dense   smooth      PW
     Min         907     907    225               260940   260940   32618
     Max         910     910    228               260966   260966   32632
     Sum       36381   36381   9085             10438299 10438299 1304995
 


     bravais-lattice index     =            8
     lattice parameter (alat)  =      37.7945  a.u.
     unit-cell volume          =  107973.3533 (a.u.)^3
     number of atoms/cell      =           24
     number of atomic types    =            2
     number of electrons       =        60.00
     number of Kohn-Sham states=           30
     kinetic-energy cutoff     =      80.0000  Ry
     charge density cutoff     =     320.0000  Ry
     convergence threshold     =      1.0E-08
     mixing beta               =       0.7000
     number of iterations used =            8  plain     mixing
     Exchange-correlation      = PBE ( 1  4  3  4 0 0)

     celldm(1)=  37.794523  celldm(2)=   1.000000  celldm(3)=   2.000000
     celldm(4)=   0.000000  celldm(5)=   0.000000  celldm(6)=   0.000000

     crystal axes: (cart. coord. in units of alat)
               a(1) = (   1.000000   0.000000   0.000000 )  
               a(2) = (   0.000000   1.000000   0.000000 )  
               a(3) = (   0.000000   0.000000   2.000000 )  

     reciprocal axes: (cart. coord. in units 2 pi/alat)
               b(1) = (  1.000000  0.000000  0.000000 )  
               b(2) = (  0.000000  1.000000  0.000000 )  
               b(3) = (  0.000000  0.000000  0.500000 )  


     PseudoPot. # 1 for C  read from file:
     ./C.tm.pbe.UPF
     MD5 check sum: a4f27fcb9b24331b00ace8e732a7e062
     Pseudo is Norm-conserving, Zval =  4.0
     Generated using "atomic" code by A. Dal Corso v.5.2.0
     Using radial grid of 1073 points,  1 beta functions with: 
                l(1) =   1

     PseudoPot. # 2 for H  read from file:
     ./H.tm.pbe.UPF
     MD5 check sum: 4b614d66af87240b7a5107bfa527a767
     Pseudo is Norm-conserving, Zval =  1.0
     Generated using "atomic" code by A. Dal Corso v.5.2.0
     Using radial grid of  929 points,  0 beta functions with: 

     atomic species   valence    mass     pseudopotential
        C              4.00    12.00000     C ( 1.00)
        H              1.00     1.00000     H ( 1.00)

      4 Sym. Ops., with inversion, found



   Cartesian axes

     site n.     atom                  positions (alat units)
         1           C   tau(   1) = (   0.0000000   0.0523913   0.0710837  )
         2           C   tau(   2) = (   0.0000000  -0.0523913  -0.0710837  )
         3           C   tau(   3) = (   0.0603102   0.0727252   0.0427723  )
         4           C   tau(   4) = (  -0.0603102   0.0727252   0.0427723  )
         5           C   tau(   5) = (   0.0603102  -0.0727252  -0.0427723  )
         6           C   tau(   6) = (  -0.0603102  -0.0727252  -0.0427723  )
         7           C   tau(   7) = (   0.0603477   0.1133398  -0.0138580  )
         8           C   tau(   8) = (  -0.0603477   0.1133398  -0.0138580  )
         9           C   tau(   9) = (   0.0603477  -0.1133398   0.0138580  )
        10           C   tau(  10) = (  -0.0603477  -0.1133398   0.0138580  )
        11           C   tau(  11) = (   0.0000000   0.1335739  -0.0422511  )
        12           C   tau(  12) = (   0.0000000  -0.1335739   0.0422511  )
        13           H   tau(  13) = (   0.0000000   0.0203013   0.1145952  )
        14           H   tau(  14) = (   0.0000000  -0.0203013  -0.1145952  )
        15           H   tau(  15) = (   0.1071157   0.0566927   0.0646030  )
        16           H   tau(  16) = (  -0.1071157   0.0566927   0.0646030  )
        17           H   tau(  17) = (   0.1071157  -0.0566927  -0.0646030  )
        18           H   tau(  18) = (  -0.1071157  -0.0566927  -0.0646030  )
        19           H   tau(  19) = (   0.1071899   0.1291247  -0.0358153  )
        20           H   tau(  20) = (  -0.1071899   0.1291247  -0.0358153  )
        21           H   tau(  21) = (   0.1071899  -0.1291247   0.0358153  )
        22           H   tau(  22) = (  -0.1071899  -0.1291247   0.0358153  )
        23           H   tau(  23) = (   0.0000000   0.1651521  -0.0861635  )
        24           H   tau(  24) = (   0.0000000  -0.1651521   0.0861635  )

     number of k points=     1
                       cart. coord. in units 2pi/alat
        k(    1) = (   0.0000000   0.0000000   0.0000000), wk =   2.0000000

     Dense  grid:  5219150 G-vectors     FFT dimensions: ( 216, 216, 432)

     Estimated max dynamical RAM per process >     170.14 MB

     Estimated total dynamical RAM >       6.65 GB
 
   TS-vdW initialization
   ---------------------
 
   Determining TS-vdW damping function parameters...
     ddamp = 20.000000
     sR =  0.940000
   Initializing species #   1 with atomic symbol C  
     Radial grid parameter: NrgpA is  1073.
     Radial grid parameter: gfctrA is  0.000152.
     Radial grid parameter: dxA is  0.012500.
     The number of valence electrons, eref, is         3.999999999999051.
     The reference free atom volume, vref, is        38.961770359420711 bohr^3.
     Determining intial radial grid cutoff...
     An acceptable radial grid cutoff was determined by retaining  871 of 1073 radial grid points.
     The magnitude of the atomic pseudo-density at the radial grid cutoff is  8.350535E-07.
     Using this radial grid cutoff value of         8.030449715183137 au:
     The free atom volume computed with this cutoff is        38.584424217296466 bohr^3 with an error of  0.969%.
     Linear grid spacing was computed as:         0.009030449715183 bohr.
     The free atom static dipole polarizability is     12.000000 bohr^3.
     The free atom homonuclear C6 coefficient is     46.600000 Hartree bohr^6.
     The free atom vdW radius is      3.590000 bohr.
   Initializing species #   2 with atomic symbol H  
     Radial grid parameter: NrgpA is   929.
     Radial grid parameter: gfctrA is  0.000912.
     Radial grid parameter: dxA is  0.012500.
     The number of valence electrons, eref, is         0.999999999255513.
     The reference free atom volume, vref, is        10.489270681052046 bohr^3.
     Determining intial radial grid cutoff...
     An acceptable radial grid cutoff was determined by retaining  727 of  929 radial grid points.
     The magnitude of the atomic pseudo-density at the radial grid cutoff is  2.567060E-07.
     Using this radial grid cutoff value of         7.964546459034780 au:
     The free atom volume computed with this cutoff is        10.388507744642606 bohr^3 with an error of  0.961%.
     Linear grid spacing was computed as:         0.008964546459035 bohr.
     The free atom static dipole polarizability is      4.500000 bohr^3.
     The free atom homonuclear C6 coefficient is      6.500000 Hartree bohr^6.
     The free atom vdW radius is      3.100000 bohr.

     Initial potential from superposition of free atoms

     starting charge   59.99939, renormalised to   60.00000

     negative rho (up, down):  1.333E-03 0.000E+00
     Starting wfcs are   60 randomized atomic wfcs

     total cpu time spent up to now is        9.8 secs

     Self-consistent Calculation

     iteration #  1     ecut=    80.00 Ry     beta= 0.70
     Davidson diagonalization with overlap
     ethr =  1.00E-02,  avg # of iterations =  2.0

     negative rho (up, down):  2.242E-04 0.000E+00

     total cpu time spent up to now is       16.7 secs

     total energy              =    -149.96216497 Ry
     Harris-Foulkes estimate   =    -151.95900649 Ry
     estimated scf accuracy    <       3.02971370 Ry

     iteration #  2     ecut=    80.00 Ry     beta= 0.70
     Davidson diagonalization with overlap
     ethr =  5.05E-03,  avg # of iterations =  2.0

     negative rho (up, down):  1.069E-04 0.000E+00

     total cpu time spent up to now is       23.4 secs

     total energy              =    -150.53655199 Ry
     Harris-Foulkes estimate   =    -151.10687956 Ry
     estimated scf accuracy    <       0.96998137 Ry

     iteration #  3     ecut=    80.00 Ry     beta= 0.70
     Davidson diagonalization with overlap
     ethr =  1.62E-03,  avg # of iterations =  2.0

     negative rho (up, down):  1.219E-05 0.000E+00

     total cpu time spent up to now is       29.9 secs

     total energy              =    -150.79176895 Ry
     Harris-Foulkes estimate   =    -150.81850744 Ry
     estimated scf accuracy    <       0.05192331 Ry

     iteration #  4     ecut=    80.00 Ry     beta= 0.70
     Davidson diagonalization with overlap
     ethr =  8.65E-05,  avg # of iterations =  2.0

     negative rho (up, down):  1.434E-06 0.000E+00

     total cpu time spent up to now is       36.4 secs

     total energy              =    -150.80316507 Ry
     Harris-Foulkes estimate   =    -150.80328526 Ry
     estimated scf accuracy    <       0.00059813 Ry

     iteration #  5     ecut=    80.00 Ry     beta= 0.70
     Davidson diagonalization with overlap
     ethr =  9.97E-07,  avg # of iterations =  3.0

     negative rho (up, down):  6.334E-08 0.000E+00

     total cpu time spent up to now is       43.4 secs

     total energy              =    -150.80343367 Ry
     Harris-Foulkes estimate   =    -150.80348655 Ry
     estimated scf accuracy    <       0.00013113 Ry

     iteration #  6     ecut=    80.00 Ry     beta= 0.70
     Davidson diagonalization with overlap
     ethr =  2.19E-07,  avg # of iterations =  4.0

     total cpu time spent up to now is       50.4 secs

     total energy              =    -150.80345626 Ry
     Harris-Foulkes estimate   =    -150.80346821 Ry
     estimated scf accuracy    <       0.00002462 Ry

     iteration #  7     ecut=    80.00 Ry     beta= 0.70
     Davidson diagonalization with overlap
     ethr =  4.10E-08,  avg # of iterations =  4.0

     total cpu time spent up to now is       57.2 secs

     total energy              =    -150.80346226 Ry
     Harris-Foulkes estimate   =    -150.80346420 Ry
     estimated scf accuracy    <       0.00000227 Ry

     iteration #  8     ecut=    80.00 Ry     beta= 0.70
     Davidson diagonalization with overlap
     ethr =  3.78E-09,  avg # of iterations =  4.0

     total cpu time spent up to now is       64.0 secs

     total energy              =    -150.80346274 Ry
     Harris-Foulkes estimate   =    -150.80346357 Ry
     estimated scf accuracy    <       0.00000012 Ry

     iteration #  9     ecut=    80.00 Ry     beta= 0.70
     Davidson diagonalization with overlap
     ethr =  2.04E-10,  avg # of iterations =  4.0

     total cpu time spent up to now is       70.7 secs

     total energy              =    -150.80346277 Ry
     Harris-Foulkes estimate   =    -150.80346287 Ry
     estimated scf accuracy    <       0.00000002 Ry

     iteration # 10     ecut=    80.00 Ry     beta= 0.70
     Davidson diagonalization with overlap
     ethr =  3.24E-11,  avg # of iterations =  3.0

     total cpu time spent up to now is       77.3 secs

     End of self-consistent calculation

          k = 0.0000 0.0000 0.0000 (652498 PWs)   bands (ev):

   -21.0891 -20.9950 -18.2842 -18.2414 -18.2371 -18.2039 -14.6543 -14.6509
   -14.6418 -14.6305 -12.7734 -12.7405 -11.0028 -10.9944 -10.7499 -10.7421
   -10.0829 -10.0611 -10.0500 -10.0338  -9.2239  -8.5872  -8.0355  -8.0322
    -8.0317  -8.0307  -6.4243  -6.1390  -6.1300  -5.8994

     highest occupied level (ev):    -5.8994

!    total energy              =    -150.80346278 Ry
     Harris-Foulkes estimate   =    -150.80346268 Ry
     estimated scf accuracy    <          4.8E-10 Ry

     The total energy is the sum of the following terms:

     one-electron contribution =   -1154.37245542 Ry
     hartree contribution      =     583.60998178 Ry
     xc contribution           =     -50.33217196 Ry
     ewald contribution        =     470.31816269 Ry
     Dispersion T-S Correction =      -0.02697986 Ry

     convergence has been achieved in  10 iterations

     Forces acting on atoms (cartesian axes, Ry/au):

     atom    1 type  1   force =     0.00000000    0.00311184   -0.00063529
     atom    2 type  1   force =     0.00000000   -0.00311184    0.00063529
     atom    3 type  1   force =    -0.00239988    0.00194303    0.00019483
     atom    4 type  1   force =     0.00239988    0.00194303    0.00019483
     atom    5 type  1   force =    -0.00239988   -0.00194303   -0.00019483
     atom    6 type  1   force =     0.00239988   -0.00194303   -0.00019483
     atom    7 type  1   force =    -0.00182517   -0.00063437    0.00110578
     atom    8 type  1   force =     0.00182517   -0.00063437    0.00110578
     atom    9 type  1   force =    -0.00182517    0.00063437   -0.00110578
     atom   10 type  1   force =     0.00182517    0.00063437   -0.00110578
     atom   11 type  1   force =     0.00000000   -0.00144893    0.00155629
     atom   12 type  1   force =     0.00000000    0.00144893   -0.00155629
     atom   13 type  2   force =     0.00000000   -0.00901791    0.01116660
     atom   14 type  2   force =     0.00000000    0.00901791   -0.01116660
     atom   15 type  2   force =     0.01257026   -0.00467630    0.00566922
     atom   16 type  2   force =    -0.01257026   -0.00467630    0.00566922
     atom   17 type  2   force =     0.01257026    0.00467630   -0.00566922
     atom   18 type  2   force =    -0.01257026    0.00467630   -0.00566922
     atom   19 type  2   force =     0.01278887    0.00415505   -0.00603849
     atom   20 type  2   force =    -0.01278887    0.00415505   -0.00603849
     atom   21 type  2   force =     0.01278887   -0.00415505    0.00603849
     atom   22 type  2   force =    -0.01278887   -0.00415505    0.00603849
     atom   23 type  2   force =     0.00000000    0.00850342   -0.01205404
     atom   24 type  2   force =     0.00000000   -0.00850342    0.01205404

     Total force =     0.051496     Total SCF correction =     0.000016

     Writing output data file S11.save/
 
     init_run     :      8.07s CPU      9.08s WALL (       1 calls)
     electrons    :     59.71s CPU     67.78s WALL (       1 calls)
     forces       :      0.57s CPU      0.58s WALL (       1 calls)

     Called by init_run:
     wfcinit      :      1.65s CPU      1.78s WALL (       1 calls)
     potinit      :      2.84s CPU      3.52s WALL (       1 calls)
     hinit0       :      0.38s CPU      0.53s WALL (       1 calls)

     Called by electrons:
     c_bands      :     26.33s CPU     27.20s WALL (      10 calls)
     sum_band     :      5.90s CPU      6.07s WALL (      10 calls)
     v_of_rho     :     28.37s CPU     35.83s WALL (      11 calls)
     mix_rho      :      1.41s CPU      1.49s WALL (      10 calls)

     Called by c_bands:
     init_us_2    :      0.11s CPU      0.12s WALL (      21 calls)
     regterg      :     26.18s CPU     27.04s WALL (      10 calls)

     Called by sum_band:

     Called by *egterg:
     h_psi        :     24.41s CPU     25.12s WALL (      41 calls)
     g_psi        :      0.08s CPU      0.08s WALL (      30 calls)
     rdiaghg      :      0.14s CPU      0.17s WALL (      40 calls)

     Called by h_psi:
     h_psi:pot    :     24.25s CPU     24.97s WALL (      41 calls)
     h_psi:calbec :      0.18s CPU      0.21s WALL (      41 calls)
     vloc_psi     :     23.83s CPU     24.51s WALL (      41 calls)
     add_vuspsi   :      0.24s CPU      0.24s WALL (      41 calls)

     General routines
     calbec       :      0.20s CPU      0.24s WALL (      45 calls)
     fft          :      4.60s CPU      5.01s WALL (      89 calls)
     ffts         :      0.47s CPU      0.49s WALL (      10 calls)
     fftw         :     22.28s CPU     23.04s WALL (    1102 calls)
 
     Parallel routines
     fft_scatt_xy :      5.65s CPU      5.69s WALL (    1201 calls)
     fft_scatt_yz :      7.77s CPU      8.65s WALL (    1201 calls)
 
     PWSCF        :   1m 8.78s CPU   1m18.93s WALL

 
   This run was terminated on:  12: 5:26  30May2019            

=------------------------------------------------------------------------------=
   JOB DONE.
=------------------------------------------------------------------------------=
